\relax 
\providecommand*\new@tpo@label[2]{}
\providecommand\hyper@newdestlabel[2]{}
\providecommand\HyField@AuxAddToFields[1]{}
\providecommand\HyField@AuxAddToCoFields[2]{}
\providecommand\BKM@entry[2]{}
\BKM@entry{id=1,dest={73756273656374696F6E2A2E32},srcline={199}}{5C3337365C3337375C303030425C303030615C303030635C3030306B5C303030675C303030725C3030306F5C303030755C3030306E5C30303064}
\@writefile{toc}{\contentsline {subsection}{\nonumberline Background}{1}{subsection*.2}\protected@file@percent }
\newlabel{background}{{}{1}{Background}{subsection*.2}{}}
\BKM@entry{id=2,dest={73756273656374696F6E2A2E34},srcline={252}}{5C3337365C3337375C303030535C3030306F5C3030306C5C303030755C303030745C303030695C3030306F5C3030306E}
\BKM@entry{id=3,dest={73756273756273656374696F6E2A2E36},srcline={254}}{5C3337365C3337375C303030435C3030306F5C3030306E5C303030635C303030655C303030705C30303074}
\BKM@entry{id=4,dest={73756273756273656374696F6E2A2E38},srcline={274}}{5C3337365C3337375C303030485C3030306F5C303030735C303030745C303030695C3030306E5C30303067}
\BKM@entry{id=5,dest={73756273656374696F6E2A2E3130},srcline={290}}{5C3337365C3337375C303030485C3030306F5C303030775C3030305C3034305C303030745C3030306F5C3030305C3034305C303030755C303030735C30303065}
\BKM@entry{id=6,dest={73756273756273656374696F6E2A2E3132},srcline={292}}{5C3337365C3337375C303030535C303030695C3030306D5C303030705C3030306C5C303030655C3030305C3034305C303030755C303030705C303030645C303030615C303030745C303030655C3030305C3034305C303030615C3030306C5C303030655C303030725C303030745C30303073}
