{
  "hash": "6956a48b10f0abdc68f9e5dae585f604",
  "result": {
    "engine": "knitr",
    "markdown": "---\ntitle: \"High Dose Dexamethasone\"\ndescription: |\n  Guest blog post at The Data Lab about the use of High Dose Dexamethasone.\n  \npreview: images/screenshot-www.researchgate.net-2021.03.14-13_59_28.png\nauthor:\n  - name: Brian MacKenna\n  - name: Calum Polwart\n    orcid_id: 0000-0002-4774-6366\ndate: 2019-11-28\n---\n\n\n\n\n\nHere is a [link to a blog post](https://www.thedatalab.org/blog/67/high-dose-dexamethasone/), I wrote for the guys over at TheDataLab about High Dose Dexamethasone. Data Lab tells me this was one of their most read posts. I continue to keep an eye on the dexamethasone data, and in the future will post a \"live\" update of that data on here.\n",
    "supporting": [],
    "filters": [
      "rmarkdown/pagebreak.lua"
    ],
    "includes": {},
    "engineDependencies": {},
    "preserve": {},
    "postProcess": true
  }
}